<?xml version="1.0" encoding="UTF-8" standalone="no"?>
<!-- Created with Inkscape (http://www.inkscape.org/) -->

<svg
   xmlns:dc="http://purl.org/dc/elements/1.1/"
   xmlns:cc="http://creativecommons.org/ns#"
   xmlns:rdf="http://www.w3.org/1999/02/22-rdf-syntax-ns#"
   xmlns:svg="http://www.w3.org/2000/svg"
   xmlns="http://www.w3.org/2000/svg"
   xmlns:sodipodi="http://sodipodi.sourceforge.net/DTD/sodipodi-0.dtd"
   xmlns:inkscape="http://www.inkscape.org/namespaces/inkscape"
   id="svg3364"
   version="1.1"
   inkscape:version="0.48.5 r10040"
   width="456.79126"
   height="1162.8516"
   xml:space="preserve"
   sodipodi:docname="graph.svg"><metadata
     id="metadata3370"><rdf:RDF><cc:Work
         rdf:about=""><dc:format>image/svg+xml</dc:format><dc:type
           rdf:resource="http://purl.org/dc/dcmitype/StillImage" /><dc:title /></cc:Work></rdf:RDF></metadata><defs
     id="defs3368"><clipPath
       clipPathUnits="userSpaceOnUse"
       id="clipPath3380"><path
         d="m 36,996 445.59,0 0,-960.195 L 36,35.805 36,996 z"
         id="path3382"
         inkscape:connector-curvature="0" /></clipPath><marker
       inkscape:stockid="Arrow2Lend"
       orient="auto"
       refY="0"
       refX="0"
       id="Arrow2Lend-49"
       style="overflow:visible"><path
         inkscape:connector-curvature="0"
         id="path3976-2"
         style="fill-rule:evenodd;stroke-width:0.625;stroke-linejoin:round"
         d="M 8.7185878,4.0337352 -2.2072895,0.01601326 8.7185884,-4.0017078 c -1.7454984,2.3720609 -1.7354408,5.6174519 -6e-7,8.035443 z"
         transform="matrix(-1.1,0,0,-1.1,-1.1,0)" /></marker><marker
       inkscape:stockid="Arrow2Lend"
       orient="auto"
       refY="0"
       refX="0"
       id="marker7293"
       style="overflow:visible"><path
         inkscape:connector-curvature="0"
         id="path7295"
         style="fill-rule:evenodd;stroke-width:0.625;stroke-linejoin:round"
         d="M 8.7185878,4.0337352 -2.2072895,0.01601326 8.7185884,-4.0017078 c -1.7454984,2.3720609 -1.7354408,5.6174519 -6e-7,8.035443 z"
         transform="matrix(-1.1,0,0,-1.1,-1.1,0)" /></marker><marker
       inkscape:stockid="Arrow2Lend"
       orient="auto"
       refY="0"
       refX="0"
       id="marker7297"
       style="overflow:visible"><path
         inkscape:connector-curvature="0"
         id="path7299"
         style="fill-rule:evenodd;stroke-width:0.625;stroke-linejoin:round"
         d="M 8.7185878,4.0337352 -2.2072895,0.01601326 8.7185884,-4.0017078 c -1.7454984,2.3720609 -1.7354408,5.6174519 -6e-7,8.035443 z"
         transform="matrix(-1.1,0,0,-1.1,-1.1,0)" /></marker></defs><sodipodi:namedview
     pagecolor="#ffffff"
     bordercolor="#666666"
     borderopacity="1"
     objecttolerance="10"
     gridtolerance="10"
     guidetolerance="10"
     inkscape:pageopacity="0"
     inkscape:pageshadow="2"
     inkscape:window-width="770"
     inkscape:window-height="862"
     id="namedview3366"
     showgrid="false"
     inkscape:zoom="0.46942788"
     inkscape:cx="254.50175"
     inkscape:cy="589.49877"
     inkscape:window-x="668"
     inkscape:window-y="18"
     inkscape:window-maximized="0"
     inkscape:current-layer="layer11"
     fit-margin-top="0"
     fit-margin-left="0"
     fit-margin-right="0"
     fit-margin-bottom="0" /><g
     inkscape:groupmode="layer"
     id="layer12"
     inkscape:label="path"
     style="display:none"
     transform="translate(9.375,-5e-5)"
     sodipodi:insensitive="true"><path
       transform="matrix(1.25,0,0,-1.25,-49.375,1211.875)"
       d="m 207.988,231 c 0,-9.941 -14.55,-18 -32.496,-18 -17.945,0 -32.492,8.059 -32.492,18 0,9.941 14.547,18 32.492,18 17.946,0 32.496,-8.059 32.496,-18"
       style="fill:#377eb8;fill-opacity:1;fill-rule:nonzero;stroke:#ebab00;stroke-width:16;stroke-linecap:butt;stroke-linejoin:round;stroke-miterlimit:9.39999962;stroke-opacity:1;stroke-dasharray:none;display:inline"
       id="path6733"
       inkscape:connector-curvature="0" /><g
       transform="matrix(1.25,0,0,-1.25,-49.375,1211.875)"
       style="stroke:#ebab00;stroke-width:16;stroke-miterlimit:9.39999962;stroke-opacity:1;stroke-dasharray:none;display:inline"
       id="g6735"><path
         inkscape:connector-curvature="0"
         id="path6737"
         style="fill:#b3cde3;fill-opacity:1;fill-rule:nonzero;stroke:#ebab00;stroke-width:16;stroke-linecap:butt;stroke-linejoin:round;stroke-miterlimit:9.39999962;stroke-opacity:1;stroke-dasharray:none"
         d="m 195.379,519 c 0,-9.941 -29.945,-18 -66.887,-18 -36.941,0 -66.887,8.059 -66.887,18 0,9.941 29.946,18 66.887,18 36.942,0 66.887,-8.059 66.887,-18" /></g><path
       transform="matrix(1.25,0,0,-1.25,-49.375,1211.875)"
       d="m 208.977,591 c 0,-9.941 -37.825,-18 -84.485,-18 -46.66,0 -84.484,8.059 -84.484,18 0,9.941 37.824,18 84.484,18 46.66,0 84.485,-8.059 84.485,-18"
       style="fill:#377eb8;fill-opacity:1;fill-rule:nonzero;stroke:#ebab00;stroke-width:16;stroke-linecap:butt;stroke-linejoin:round;stroke-miterlimit:9.39999962;stroke-opacity:1;stroke-dasharray:none;display:inline"
       id="path6743"
       inkscape:connector-curvature="0" /><path
       transform="matrix(1.25,0,0,-1.25,-49.375,1211.875)"
       d="m 127.504,537.305 c -0.442,7.711 -0.969,16.984 -1.461,25.582"
       style="fill:none;stroke:#ebab00;stroke-width:16;stroke-linecap:butt;stroke-linejoin:round;stroke-miterlimit:9.39999962;stroke-opacity:1;stroke-dasharray:none;display:inline"
       id="path6745"
       inkscape:connector-curvature="0" /><path
       transform="matrix(1.25,0,0,-1.25,-49.375,1211.875)"
       d="m 122.547,562.711 2.922,10.184 4.066,-9.782 -6.988,-0.402 z"
       style="fill:#000000;fill-opacity:1;fill-rule:nonzero;stroke:#ebab00;stroke-width:16;stroke-linecap:butt;stroke-linejoin:round;stroke-miterlimit:9.39999962;stroke-opacity:1;stroke-dasharray:none;display:inline"
       id="path6747"
       inkscape:connector-curvature="0" /><path
       transform="matrix(1.25,0,0,-1.25,-49.375,1211.875)"
       d="m 273.773,303 c 0,-9.941 -44,-18 -98.281,-18 -54.281,0 -98.281,8.059 -98.281,18 0,9.941 44,18 98.281,18 54.281,0 98.281,-8.059 98.281,-18"
       style="fill:#b3cde3;fill-opacity:1;fill-rule:nonzero;stroke:#ebab00;stroke-width:16;stroke-linecap:butt;stroke-linejoin:round;stroke-miterlimit:9.39999962;stroke-opacity:1;stroke-dasharray:none;display:inline"
       id="path6749"
       inkscape:connector-curvature="0" /><path
       transform="matrix(1.25,0,0,-1.25,-49.375,1211.875)"
       d="m 175.492,249.305 c 0,7.711 0,16.984 0,25.582"
       style="fill:none;stroke:#ebab00;stroke-width:16;stroke-linecap:butt;stroke-linejoin:round;stroke-miterlimit:9.39999962;stroke-opacity:1;stroke-dasharray:none;display:inline"
       id="path6751"
       inkscape:connector-curvature="0" /><path
       transform="matrix(1.25,0,0,-1.25,-49.375,1211.875)"
       d="m 171.992,274.895 3.5,10 3.5,-10 -7,0 z"
       style="fill:#000000;fill-opacity:1;fill-rule:nonzero;stroke:#ebab00;stroke-width:16;stroke-linecap:butt;stroke-linejoin:round;stroke-miterlimit:9.39999962;stroke-opacity:1;stroke-dasharray:none;display:inline"
       id="path6753"
       inkscape:connector-curvature="0" /><path
       transform="matrix(1.25,0,0,-1.25,-49.375,1211.875)"
       d="m 268.375,375 c 0,-9.941 -41.586,-18 -92.883,-18 -51.297,0 -92.883,8.059 -92.883,18 0,9.941 41.586,18 92.883,18 51.297,0 92.883,-8.059 92.883,-18"
       style="fill:#b3cde3;fill-opacity:1;fill-rule:nonzero;stroke:#ebab00;stroke-width:16;stroke-linecap:butt;stroke-linejoin:round;stroke-miterlimit:9.39999962;stroke-opacity:1;stroke-dasharray:none;display:inline"
       id="path6755"
       inkscape:connector-curvature="0" /><path
       transform="matrix(1.25,0,0,-1.25,-49.375,1211.875)"
       d="m 223.684,447 c 0,-9.941 -21.575,-18 -48.192,-18 -26.613,0 -48.191,8.059 -48.191,18 0,9.941 21.578,18 48.191,18 26.617,0 48.192,-8.059 48.192,-18"
       style="fill:#377eb8;fill-opacity:1;fill-rule:nonzero;stroke:#ebab00;stroke-width:16;stroke-linecap:butt;stroke-linejoin:round;stroke-miterlimit:9.39999962;stroke-opacity:1;stroke-dasharray:none;display:inline"
       id="path6757"
       inkscape:connector-curvature="0" /><path
       transform="matrix(1.25,0,0,-1.25,-49.375,1211.875)"
       d="m 175.492,393.305 c 0,7.711 0,16.984 0,25.582"
       style="fill:none;stroke:#ebab00;stroke-width:16;stroke-linecap:butt;stroke-linejoin:round;stroke-miterlimit:9.39999962;stroke-opacity:1;stroke-dasharray:none;display:inline"
       id="path6759"
       inkscape:connector-curvature="0" /><path
       transform="matrix(1.25,0,0,-1.25,-49.375,1211.875)"
       d="m 171.992,418.895 3.5,10 3.5,-10 -7,0 z"
       style="fill:#000000;fill-opacity:1;fill-rule:nonzero;stroke:#ebab00;stroke-width:16;stroke-linecap:butt;stroke-linejoin:round;stroke-miterlimit:9.39999962;stroke-opacity:1;stroke-dasharray:none;display:inline"
       id="path6761"
       inkscape:connector-curvature="0" /><g
       transform="matrix(1.25,0,0,-1.25,-49.375,1211.875)"
       style="stroke:#ebab00;stroke-width:16;stroke-miterlimit:9.39999962;stroke-opacity:1;stroke-dasharray:none;display:inline"
       id="g6763"><path
         inkscape:connector-curvature="0"
         id="path6765"
         style="fill:none;stroke:#ebab00;stroke-width:16;stroke-linecap:butt;stroke-linejoin:round;stroke-miterlimit:9.39999962;stroke-opacity:1;stroke-dasharray:none"
         d="m 164.355,464.59 c -5.597,8.332 -12.5,18.613 -18.75,27.922" /><path
         inkscape:connector-curvature="0"
         id="path6767"
         style="fill:#000000;fill-opacity:1;fill-rule:nonzero;stroke:#ebab00;stroke-width:16;stroke-linecap:butt;stroke-linejoin:round;stroke-miterlimit:9.39999962;stroke-opacity:1;stroke-dasharray:none"
         d="m 142.547,490.789 -2.668,10.254 8.48,-6.352 -5.812,-3.902 z" /></g><path
       transform="matrix(1.25,0,0,-1.25,-49.375,1211.875)"
       d="m 175.492,321.305 c 0,7.711 0,16.984 0,25.582"
       style="fill:none;stroke:#ebab00;stroke-width:16;stroke-linecap:butt;stroke-linejoin:round;stroke-miterlimit:9.39999962;stroke-opacity:1;stroke-dasharray:none;display:inline"
       id="path6769"
       inkscape:connector-curvature="0" /><path
       transform="matrix(1.25,0,0,-1.25,-49.375,1211.875)"
       d="m 171.992,346.895 3.5,10 3.5,-10 -7,0 z"
       style="fill:#000000;fill-opacity:1;fill-rule:nonzero;stroke:#ebab00;stroke-width:16;stroke-linecap:butt;stroke-linejoin:round;stroke-miterlimit:9.39999962;stroke-opacity:1;stroke-dasharray:none;display:inline"
       id="path6771"
       inkscape:connector-curvature="0" /><path
       transform="matrix(1.25,0,0,-1.25,-49.375,1211.8751)"
       inkscape:connector-curvature="0"
       id="path3808"
       style="fill:#b3cde3;fill-opacity:1;fill-rule:nonzero;stroke:#ebab00;stroke-width:16;stroke-linecap:butt;stroke-linejoin:round;stroke-miterlimit:10;stroke-opacity:1;stroke-dasharray:none;display:inline"
       d="m 294.383,663 c 0,-9.941 -24.129,-18 -53.891,-18 -29.762,0 -53.89,8.059 -53.89,18 0,9.941 24.128,18 53.89,18 29.762,0 53.891,-8.059 53.891,-18" /><path
       transform="matrix(1.25,0,0,-1.25,-49.375,1211.8751)"
       inkscape:connector-curvature="0"
       id="path3810"
       style="fill:none;stroke:#ebab00;stroke-width:16;stroke-linecap:butt;stroke-linejoin:round;stroke-miterlimit:10;stroke-opacity:1;stroke-dasharray:none;display:inline"
       d="m 151.398,608.234 c 16.414,9.907 37.543,22.657 55.11,33.258" /><path
       transform="matrix(1.25,0,0,-1.25,-49.375,1211.8751)"
       inkscape:connector-curvature="0"
       id="path3812"
       style="fill:#000000;fill-opacity:1;fill-rule:nonzero;stroke:#ebab00;stroke-width:16;stroke-linecap:butt;stroke-linejoin:round;stroke-miterlimit:10;stroke-opacity:1;stroke-dasharray:none;display:inline"
       d="m 204.953,644.641 10.367,2.171 -6.75,-8.164 -3.617,5.993 z" /><path
       transform="matrix(1.25,0,0,-1.25,-49.375,1211.8751)"
       inkscape:connector-curvature="0"
       id="path3816"
       style="fill:none;stroke:#ebab00;stroke-width:16;stroke-linecap:butt;stroke-linejoin:round;stroke-miterlimit:10;stroke-opacity:1;stroke-dasharray:none;display:inline"
       d="m 257.422,680.234 c 9.492,9.102 21.488,20.606 31.945,30.633" /><path
       transform="matrix(1.25,0,0,-1.25,-49.375,1211.8751)"
       inkscape:connector-curvature="0"
       id="path3818"
       style="fill:#000000;fill-opacity:1;fill-rule:nonzero;stroke:#ebab00;stroke-width:16;stroke-linecap:butt;stroke-linejoin:round;stroke-miterlimit:10;stroke-opacity:1;stroke-dasharray:none;display:inline"
       d="m 287.012,713.457 9.64,4.395 -4.793,-9.446 -4.847,5.051 z" /></g><g
     inkscape:groupmode="layer"
     id="layer1"
     inkscape:label="jump"
     style="display:none"
     transform="translate(0.01,0)"
     sodipodi:insensitive="true"><path
       d="m 317.16726,402.53628 c 26.76042,22.02437 58.95046,55.26645 81.94972,100.74847 63.18985,124.95399 58.28638,210.886 31.13436,324.31807 -14.21539,59.38609 -43.41973,103.49863 -72.20712,134.54868"
       style="fill:none;stroke:#ff0000;stroke-width:15.00000095;stroke-linecap:butt;stroke-linejoin:round;stroke-miterlimit:10;stroke-opacity:1;stroke-dasharray:29.99999972, 14.99999985;stroke-dashoffset:0;display:inline"
       id="path3536-2"
       inkscape:connector-curvature="0" /><path
       d="m 355.51805,942.93037 -16.86362,41.65421 39.24193,-22.07959 -22.37831,-19.57462 z"
       style="fill:#ff0000;fill-opacity:1;fill-rule:nonzero;stroke:#ff0000;stroke-width:0.99999994;stroke-linecap:butt;stroke-linejoin:round;stroke-miterlimit:10;stroke-opacity:1;stroke-dasharray:none;display:inline"
       id="path3538-3"
       inkscape:connector-curvature="0" /><path
       d="m 294.383,663 c 0,-9.941 -24.129,-18 -53.891,-18 -29.762,0 -53.89,8.059 -53.89,18 0,9.941 24.128,18 53.89,18 29.762,0 53.891,-8.059 53.891,-18"
       style="fill:#b3cde3;fill-opacity:1;fill-rule:nonzero;stroke:#ff0000;stroke-width:16;stroke-linecap:butt;stroke-linejoin:round;stroke-miterlimit:10;stroke-opacity:1;stroke-dasharray:none;display:inline"
       id="path4659"
       inkscape:connector-curvature="0"
       transform="matrix(1.25,0,0,-1.25,-40.01,1211.875)" /><path
       transform="matrix(1.25,0,0,-1.25,-40.01,1211.875)"
       inkscape:connector-curvature="0"
       id="path4692"
       style="fill:#b3cde3;fill-opacity:1;fill-rule:nonzero;stroke:#ff0000;stroke-width:16;stroke-linecap:butt;stroke-linejoin:round;stroke-miterlimit:10;stroke-opacity:1;stroke-dasharray:none;display:inline"
       d="m 328.785,159 c 0,-9.941 -20.726,-18 -46.293,-18 -25.566,0 -46.293,8.059 -46.293,18 0,9.941 20.727,18 46.293,18 25.567,0 46.293,-8.059 46.293,-18" /></g><g
     inkscape:groupmode="layer"
     id="layer11"
     inkscape:label="request"
     style="display:none"
     transform="translate(9.375,-5e-5)"
     sodipodi:insensitive="true"><path
       transform="matrix(1.25,0,0,-1.25,-49.375,1211.8751)"
       inkscape:connector-curvature="0"
       id="path3814"
       style="fill:#377eb8;fill-opacity:1;fill-rule:nonzero;stroke:#00de3a;stroke-width:20;stroke-linecap:butt;stroke-linejoin:round;stroke-miterlimit:10;stroke-opacity:1;stroke-dasharray:none;display:inline"
       d="m 363.582,735 c 0,-9.941 -22.426,-18 -50.09,-18 -27.664,0 -50.09,8.059 -50.09,18 0,9.941 22.426,18 50.09,18 27.664,0 50.09,-8.059 50.09,-18" /></g><g
     id="g3372"
     inkscape:groupmode="layer"
     inkscape:label="graph"
     transform="matrix(1.25,0,0,-1.25,-40,1211.875)"
     style="display:inline"
     sodipodi:insensitive="true"><g
       id="g3374" /><path
       d="m 180.387,159 c 0,-9.941 -16.965,-18 -37.895,-18 -20.93,0 -37.894,8.059 -37.894,18 0,9.941 16.964,18 37.894,18 20.93,0 37.895,-8.059 37.895,-18"
       style="fill:#ccebc5;fill-opacity:1;fill-rule:nonzero;stroke:#000000;stroke-width:1;stroke-linecap:butt;stroke-linejoin:round;stroke-miterlimit:10;stroke-opacity:1;stroke-dasharray:none"
       id="path3390"
       inkscape:connector-curvature="0" /><text
       transform="scale(1,-1)"
       id="text3392"
       x="121.49219"
       y="-155.30078"><tspan
         style="font-size:14.00024414px;font-variant:normal;writing-mode:lr-tb;fill:#4d4d4d;fill-opacity:1;fill-rule:nonzero;stroke:none;font-family:Nimbus Roman No9 L;-inkscape-font-specification:NimbusRomNo9L-Regu"
         x="121.49219 130.49435 138.74049 146.24463 154.49077"
         y="-155.30078"
         sodipodi:role="line"
         id="tspan3394">RESET</tspan></text>
<path
       d="m 207.988,231 c 0,-9.941 -14.55,-18 -32.496,-18 -17.945,0 -32.492,8.059 -32.492,18 0,9.941 14.547,18 32.492,18 17.946,0 32.496,-8.059 32.496,-18"
       style="fill:#377eb8;fill-opacity:1;fill-rule:nonzero;stroke:#000000;stroke-width:1;stroke-linecap:butt;stroke-linejoin:round;stroke-miterlimit:10;stroke-opacity:1;stroke-dasharray:none"
       id="path3396"
       inkscape:connector-curvature="0" /><text
       transform="scale(1,-1)"
       id="text3398"
       x="158.49219"
       y="-227.30078"><tspan
         style="font-size:14.00024414px;font-variant:normal;writing-mode:lr-tb;fill:#ffffff;fill-opacity:1;fill-rule:nonzero;stroke:none;font-family:Nimbus Roman No9 L;-inkscape-font-specification:NimbusRomNo9L-Regu"
         x="158.49219 165.99632 175.74049 183.24463"
         y="-227.30078"
         sodipodi:role="line"
         id="tspan3400">SAFE</tspan></text>
<path
       d="m 150.48,176.945 c 3.813,8.082 8.454,17.934 12.704,26.942"
       style="fill:none;stroke:#000000;stroke-width:1;stroke-linecap:butt;stroke-linejoin:round;stroke-miterlimit:10;stroke-opacity:1;stroke-dasharray:none"
       id="path3402"
       inkscape:connector-curvature="0" /><path
       d="m 160.148,205.66 7.43,7.551 -1.098,-10.539 -6.332,2.988 z"
       style="fill:#000000;fill-opacity:1;fill-rule:nonzero;stroke:#000000;stroke-width:1;stroke-linecap:butt;stroke-linejoin:round;stroke-miterlimit:10;stroke-opacity:1;stroke-dasharray:none"
       id="path3404"
       inkscape:connector-curvature="0" /><path
       d="m 337.281,879 c 0,-9.941 -29.453,-18 -65.789,-18 -36.332,0 -65.789,8.059 -65.789,18 0,9.941 29.457,18 65.789,18 36.336,0 65.789,-8.059 65.789,-18"
       style="fill:#377eb8;fill-opacity:1;fill-rule:nonzero;stroke:#000000;stroke-width:1;stroke-linecap:butt;stroke-linejoin:round;stroke-miterlimit:10;stroke-opacity:1;stroke-dasharray:none"
       id="path3406"
       inkscape:connector-curvature="0" /><text
       transform="scale(1,-1)"
       id="text3408"
       x="228.99219"
       y="-875.30078"><tspan
         style="font-size:14.00024414px;font-variant:normal;writing-mode:lr-tb;fill:#ffffff;fill-opacity:1;fill-rule:nonzero;stroke:none;font-family:Nimbus Roman No9 L;-inkscape-font-specification:NimbusRomNo9L-Regu"
         x="228.99219 241.74641 246.24049 253.74463 263.4888 271.74893 276.24301 286.00119 295.74536 303.99149"
         y="-875.30078"
         sodipodi:role="line"
         id="tspan3410">MISALIGNED</tspan></text>
<path
       d="m 294.383,663 c 0,-9.941 -24.129,-18 -53.891,-18 -29.762,0 -53.89,8.059 -53.89,18 0,9.941 24.128,18 53.89,18 29.762,0 53.891,-8.059 53.891,-18"
       style="fill:#b3cde3;fill-opacity:1;fill-rule:nonzero;stroke:#000000;stroke-width:1;stroke-linecap:butt;stroke-linejoin:round;stroke-miterlimit:10;stroke-opacity:1;stroke-dasharray:none"
       id="path3412"
       inkscape:connector-curvature="0" /><text
       transform="scale(1,-1)"
       id="text3414"
       x="206.99219"
       y="-659.30078"><tspan
         style="font-size:14.00024414px;font-variant:normal;writing-mode:lr-tb;fill:#4d4d4d;fill-opacity:1;fill-rule:nonzero;stroke:none;font-family:Nimbus Roman No9 L;-inkscape-font-specification:NimbusRomNo9L-Regu"
         x="206.99219 216.73636 224.99651 229.49059 239.24875 248.99292 253.50101 263.24518"
         y="-659.30078"
         sodipodi:role="line"
         id="tspan3416">ALIGNING</tspan></text>
<path
       d="m 311.156,864.586 c 18.145,-8.356 37.895,-21.109 48.336,-39.586 7.871,-13.93 9.301,-22.98 0,-36 -28.676,-40.145 -73.285,1.789 -105,-36 -14.254,-16.984 -17.015,-42.445 -16.64,-61.789"
       style="fill:none;stroke:#000000;stroke-width:1;stroke-linecap:butt;stroke-linejoin:round;stroke-miterlimit:10;stroke-opacity:1;stroke-dasharray:none"
       id="path3418"
       inkscape:connector-curvature="0" /><path
       d="m 241.348,691.34 -3.02,-10.156 -3.969,9.824 6.989,0.332 z"
       style="fill:#000000;fill-opacity:1;fill-rule:nonzero;stroke:#000000;stroke-width:1;stroke-linecap:butt;stroke-linejoin:round;stroke-miterlimit:10;stroke-opacity:1;stroke-dasharray:none"
       id="path3420"
       inkscape:connector-curvature="0" /><path
       d="m 285.582,951 c 0,-9.941 -29.59,-18 -66.09,-18 -36.5,0 -66.09,8.059 -66.09,18 0,9.941 29.59,18 66.09,18 36.5,0 66.09,-8.059 66.09,-18"
       style="fill:#b3cde3;fill-opacity:1;fill-rule:nonzero;stroke:#000000;stroke-width:1;stroke-linecap:butt;stroke-linejoin:round;stroke-miterlimit:10;stroke-opacity:1;stroke-dasharray:none"
       id="path3422"
       inkscape:connector-curvature="0" /><text
       transform="scale(1,-1)"
       id="text3424"
       x="176.49219"
       y="-947.30078"><tspan
         style="font-size:14.00024414px;font-variant:normal;writing-mode:lr-tb;fill:#4d4d4d;fill-opacity:1;fill-rule:nonzero;stroke:none;font-family:Nimbus Roman No9 L;-inkscape-font-specification:NimbusRomNo9L-Regu"
         x="176.49219 186.23636 195.99454 205.73869 213.99884 218.49292 228.2511 237.99525 242.50334 252.24751"
         y="-947.30078"
         sodipodi:role="line"
         id="tspan3426">UNALIGNING</tspan></text>
<path
       d="m 258.906,896.945 c -6.261,8.426 -13.949,18.774 -20.867,28.09"
       style="fill:none;stroke:#000000;stroke-width:1;stroke-linecap:butt;stroke-linejoin:round;stroke-miterlimit:10;stroke-opacity:1;stroke-dasharray:none"
       id="path3428"
       inkscape:connector-curvature="0" /><path
       d="m 235.117,923.098 -3.152,10.113 8.773,-5.941 -5.621,-4.172 z"
       style="fill:#000000;fill-opacity:1;fill-rule:nonzero;stroke:#000000;stroke-width:1;stroke-linecap:butt;stroke-linejoin:round;stroke-miterlimit:10;stroke-opacity:1;stroke-dasharray:none"
       id="path3430"
       inkscape:connector-curvature="0" /><g
       id="g3738"><path
         inkscape:connector-curvature="0"
         id="path3432"
         style="fill:#b3cde3;fill-opacity:1;fill-rule:nonzero;stroke:#000000;stroke-width:1;stroke-linecap:butt;stroke-linejoin:round;stroke-miterlimit:10;stroke-opacity:1;stroke-dasharray:none"
         d="m 195.379,519 c 0,-9.941 -29.945,-18 -66.887,-18 -36.941,0 -66.887,8.059 -66.887,18 0,9.941 29.946,18 66.887,18 36.942,0 66.887,-8.059 66.887,-18" /><text
         y="-515.30078"
         x="84.992188"
         id="text3434"
         transform="scale(1,-1)"><tspan
           id="tspan3436"
           sodipodi:role="line"
           y="-515.30078"
           x="84.992188 93.238335 102.99651 112.74067 121.74283 129.98897 138.24911 144.99724 154.74141 163.00156"
           style="font-size:14.00024414px;font-variant:normal;writing-mode:lr-tb;fill:#4d4d4d;fill-opacity:1;fill-rule:nonzero;stroke:none;font-family:Nimbus Roman No9 L;-inkscape-font-specification:NimbusRomNo9L-Regu">ENABLE_ALL</tspan></text>
</g><path
       d="m 208.977,591 c 0,-9.941 -37.825,-18 -84.485,-18 -46.66,0 -84.484,8.059 -84.484,18 0,9.941 37.824,18 84.484,18 46.66,0 84.485,-8.059 84.485,-18"
       style="fill:#377eb8;fill-opacity:1;fill-rule:nonzero;stroke:#000000;stroke-width:1;stroke-linecap:butt;stroke-linejoin:round;stroke-miterlimit:10;stroke-opacity:1;stroke-dasharray:none"
       id="path3438"
       inkscape:connector-curvature="0" /><text
       transform="scale(1,-1)"
       id="text3440"
       x="67.492188"
       y="-587.30078"><tspan
         style="font-size:14.00024414px;font-variant:normal;writing-mode:lr-tb;fill:#ffffff;fill-opacity:1;fill-rule:nonzero;stroke:none;font-family:Nimbus Roman No9 L;-inkscape-font-specification:NimbusRomNo9L-Regu"
         x="67.492188 74.996323 84.740486 93.000633 101.24678 110.99094 117.73907 125.99921 135.74338 145.50156 154.50371 162.74985 170.996"
         y="-587.30078"
         sodipodi:role="line"
         id="tspan3442">FULLY_ENABLED</tspan></text>
<path
       d="m 127.504,537.305 c -0.442,7.711 -0.969,16.984 -1.461,25.582"
       style="fill:none;stroke:#000000;stroke-width:1;stroke-linecap:butt;stroke-linejoin:round;stroke-miterlimit:10;stroke-opacity:1;stroke-dasharray:none"
       id="path3444"
       inkscape:connector-curvature="0" /><path
       d="m 122.547,562.711 2.922,10.184 4.066,-9.782 -6.988,-0.402 z"
       style="fill:#000000;fill-opacity:1;fill-rule:nonzero;stroke:#000000;stroke-width:1;stroke-linecap:butt;stroke-linejoin:round;stroke-miterlimit:10;stroke-opacity:1;stroke-dasharray:none"
       id="path3446"
       inkscape:connector-curvature="0" /><path
       d="m 151.398,608.234 c 16.414,9.907 37.543,22.657 55.11,33.258"
       style="fill:none;stroke:#000000;stroke-width:1;stroke-linecap:butt;stroke-linejoin:round;stroke-miterlimit:10;stroke-opacity:1;stroke-dasharray:none"
       id="path3448"
       inkscape:connector-curvature="0" /><path
       d="m 204.953,644.641 10.367,2.171 -6.75,-8.164 -3.617,5.993 z"
       style="fill:#000000;fill-opacity:1;fill-rule:nonzero;stroke:#000000;stroke-width:1;stroke-linecap:butt;stroke-linejoin:round;stroke-miterlimit:10;stroke-opacity:1;stroke-dasharray:none"
       id="path3450"
       inkscape:connector-curvature="0" /><g
       id="g3733"
       transform="translate(-6.4,-2.27542)"><path
         inkscape:connector-curvature="0"
         id="path3452"
         style="fill:#b3cde3;fill-opacity:1;fill-rule:nonzero;stroke:#000000;stroke-width:1;stroke-linecap:butt;stroke-linejoin:round;stroke-miterlimit:10;stroke-opacity:1;stroke-dasharray:none"
         d="m 339.93824,521.27542 c 0,-9.941 -21.575,-18 -48.192,-18 -26.613,0 -48.191,8.059 -48.191,18 0,9.941 21.578,18 48.191,18 26.617,0 48.192,-8.059 48.192,-18" /><text
         y="-517.57623"
         x="262.74643"
         id="text3454"
         transform="scale(1,-1)"><tspan
           id="tspan3456"
           sodipodi:role="line"
           y="-517.57623"
           x="262.74643 272.4906 276.99869 284.50281 294.24698 303.24915 311.49527"
           style="font-size:14.00024414px;font-variant:normal;writing-mode:lr-tb;fill:#4d4d4d;fill-opacity:1;fill-rule:nonzero;stroke:none;font-family:Nimbus Roman No9 L;-inkscape-font-specification:NimbusRomNo9L-Regu">DISABLE</tspan></text>
</g><path
       d="m 350.082,807 c 0,-9.941 -31.156,-18 -69.59,-18 -38.433,0 -69.586,8.059 -69.586,18 0,9.941 31.153,18 69.586,18 38.434,0 69.59,-8.059 69.59,-18"
       style="fill:#b3cde3;fill-opacity:1;fill-rule:nonzero;stroke:#000000;stroke-width:1;stroke-linecap:butt;stroke-linejoin:round;stroke-miterlimit:10;stroke-opacity:1;stroke-dasharray:none"
       id="path3462"
       inkscape:connector-curvature="0" /><text
       transform="scale(1,-1)"
       id="text3464"
       x="234.99219"
       y="-803.30078"><tspan
         style="font-size:14.00024414px;font-variant:normal;writing-mode:lr-tb;fill:#4d4d4d;fill-opacity:1;fill-rule:nonzero;stroke:none;font-family:Nimbus Roman No9 L;-inkscape-font-specification:NimbusRomNo9L-Regu"
         x="234.99219 247.74641 252.24049 259.74463 269.4888 277.74893 282.24301 292.00119 301.74536 306.25345 315.99759"
         y="-803.30078"
         sodipodi:role="line"
         id="tspan3466">MISALIGNING</tspan></text>
<path
       d="m 133.73,609.203 c 10.043,18.281 26.926,47.801 43.762,71.797 23.762,33.867 32.676,40.086 59,72 7.692,9.324 16.168,19.547 23.61,28.504"
       style="fill:none;stroke:#000000;stroke-width:1;stroke-linecap:butt;stroke-linejoin:round;stroke-miterlimit:10;stroke-opacity:1;stroke-dasharray:none"
       id="path3468"
       inkscape:connector-curvature="0" /><path
       d="m 257.508,783.859 9.086,5.453 -3.703,-9.925 -5.383,4.472 z"
       style="fill:#000000;fill-opacity:1;fill-rule:nonzero;stroke:#000000;stroke-width:1;stroke-linecap:butt;stroke-linejoin:round;stroke-miterlimit:10;stroke-opacity:1;stroke-dasharray:none"
       id="path3470"
       inkscape:connector-curvature="0" /><path
       d="m 363.582,735 c 0,-9.941 -22.426,-18 -50.09,-18 -27.664,0 -50.09,8.059 -50.09,18 0,9.941 22.426,18 50.09,18 27.664,0 50.09,-8.059 50.09,-18"
       style="fill:#377eb8;fill-opacity:1;fill-rule:nonzero;stroke:#000000;stroke-width:1;stroke-linecap:butt;stroke-linejoin:round;stroke-miterlimit:10;stroke-opacity:1;stroke-dasharray:none"
       id="path3472"
       inkscape:connector-curvature="0" /><text
       transform="scale(1,-1)"
       id="text3474"
       x="282.99219"
       y="-731.30078"><tspan
         style="font-size:14.00024414px;font-variant:normal;writing-mode:lr-tb;fill:#ffffff;fill-opacity:1;fill-rule:nonzero;stroke:none;font-family:Nimbus Roman No9 L;-inkscape-font-specification:NimbusRomNo9L-Regu"
         x="282.99219 292.73636 300.99649 305.49057 315.24875 324.99292 333.23907"
         y="-731.30078"
         sodipodi:role="line"
         id="tspan3476">ALIGNED</tspan></text>
<path
       d="m 257.422,680.234 c 9.492,9.102 21.488,20.606 31.945,30.633"
       style="fill:none;stroke:#000000;stroke-width:1;stroke-linecap:butt;stroke-linejoin:round;stroke-miterlimit:10;stroke-opacity:1;stroke-dasharray:none"
       id="path3478"
       inkscape:connector-curvature="0" /><path
       d="m 287.012,713.457 9.64,4.395 -4.793,-9.446 -4.847,5.051 z"
       style="fill:#000000;fill-opacity:1;fill-rule:nonzero;stroke:#000000;stroke-width:1;stroke-linecap:butt;stroke-linejoin:round;stroke-miterlimit:10;stroke-opacity:1;stroke-dasharray:none"
       id="path3480"
       inkscape:connector-curvature="0" /><path
       d="M 211.25,933.113 C 206.469,922.848 200.602,909.375 196.492,897 163.207,796.766 139,673.164 129.242,619.273"
       style="fill:none;stroke:#000000;stroke-width:1;stroke-linecap:butt;stroke-linejoin:round;stroke-miterlimit:10;stroke-opacity:1;stroke-dasharray:none"
       id="path3482"
       inkscape:connector-curvature="0" /><path
       d="m 132.641,618.383 -5.207,-9.227 -1.684,10.461 6.891,-1.234 z"
       style="fill:#000000;fill-opacity:1;fill-rule:nonzero;stroke:#000000;stroke-width:1;stroke-linecap:butt;stroke-linejoin:round;stroke-miterlimit:10;stroke-opacity:1;stroke-dasharray:none"
       id="path3484"
       inkscape:connector-curvature="0" /><path
       d="m 273.773,303 c 0,-9.941 -44,-18 -98.281,-18 -54.281,0 -98.281,8.059 -98.281,18 0,9.941 44,18 98.281,18 54.281,0 98.281,-8.059 98.281,-18"
       style="fill:#b3cde3;fill-opacity:1;fill-rule:nonzero;stroke:#000000;stroke-width:1;stroke-linecap:butt;stroke-linejoin:round;stroke-miterlimit:10;stroke-opacity:1;stroke-dasharray:none"
       id="path3486"
       inkscape:connector-curvature="0" /><text
       transform="scale(1,-1)"
       id="text3488"
       x="107.99219"
       y="-299.30078"><tspan
         style="font-size:14.00024414px;font-variant:normal;writing-mode:lr-tb;fill:#4d4d4d;fill-opacity:1;fill-rule:nonzero;stroke:none;font-family:Nimbus Roman No9 L;-inkscape-font-specification:NimbusRomNo9L-Regu"
         x="107.99219 120.74641 130.49059 137.99472 146.24086 154.50101 163.50316 170.99329 184.50352 188.9976 197.24374 206.24591 216.00407 222.7522 232.49637"
         y="-299.30078"
         sodipodi:role="line"
         id="tspan3490">MASTERSWITCH_ON</tspan></text>
<path
       d="m 175.492,249.305 c 0,7.711 0,16.984 0,25.582"
       style="fill:none;stroke:#000000;stroke-width:1;stroke-linecap:butt;stroke-linejoin:round;stroke-miterlimit:10;stroke-opacity:1;stroke-dasharray:none"
       id="path3492"
       inkscape:connector-curvature="0" /><path
       d="m 171.992,274.895 3.5,10 3.5,-10 -7,0 z"
       style="fill:#000000;fill-opacity:1;fill-rule:nonzero;stroke:#000000;stroke-width:1;stroke-linecap:butt;stroke-linejoin:round;stroke-miterlimit:10;stroke-opacity:1;stroke-dasharray:none"
       id="path3494"
       inkscape:connector-curvature="0" /><path
       d="m 268.375,375 c 0,-9.941 -41.586,-18 -92.883,-18 -51.297,0 -92.883,8.059 -92.883,18 0,9.941 41.586,18 92.883,18 51.297,0 92.883,-8.059 92.883,-18"
       style="fill:#b3cde3;fill-opacity:1;fill-rule:nonzero;stroke:#000000;stroke-width:1;stroke-linecap:butt;stroke-linejoin:round;stroke-miterlimit:10;stroke-opacity:1;stroke-dasharray:none"
       id="path3496"
       inkscape:connector-curvature="0" /><text
       transform="scale(1,-1)"
       id="text3498"
       x="111.99219"
       y="-371.30078"><tspan
         style="font-size:14.00024414px;font-variant:normal;writing-mode:lr-tb;fill:#4d4d4d;fill-opacity:1;fill-rule:nonzero;stroke:none;font-family:Nimbus Roman No9 L;-inkscape-font-specification:NimbusRomNo9L-Regu"
         x="111.99219 120.23833 129.99651 139.74068 149.49884 159.24301 167.48915 174.25128 183.99545 193.75362 206.49384 213.99797 218.50604 228.25023"
         y="-371.30078"
         sodipodi:role="line"
         id="tspan3500">ENGAGE_DAMPING</tspan></text>
<path
       d="m 223.684,447 c 0,-9.941 -21.575,-18 -48.192,-18 -26.613,0 -48.191,8.059 -48.191,18 0,9.941 21.578,18 48.191,18 26.617,0 48.192,-8.059 48.192,-18"
       style="fill:#377eb8;fill-opacity:1;fill-rule:nonzero;stroke:#000000;stroke-width:1;stroke-linecap:butt;stroke-linejoin:round;stroke-miterlimit:10;stroke-opacity:1;stroke-dasharray:none"
       id="path3502"
       inkscape:connector-curvature="0" /><text
       transform="scale(1,-1)"
       id="text3504"
       x="146.49219"
       y="-443.30078"><tspan
         style="font-size:14.00024414px;font-variant:normal;writing-mode:lr-tb;fill:#ffffff;fill-opacity:1;fill-rule:nonzero;stroke:none;font-family:Nimbus Roman No9 L;-inkscape-font-specification:NimbusRomNo9L-Regu"
         x="146.49219 156.23636 165.99454 178.74875 186.23888 194.49902"
         y="-443.30078"
         sodipodi:role="line"
         id="tspan3506">DAMPED</tspan></text>
<path
       d="m 175.492,393.305 c 0,7.711 0,16.984 0,25.582"
       style="fill:none;stroke:#000000;stroke-width:1;stroke-linecap:butt;stroke-linejoin:round;stroke-miterlimit:10;stroke-opacity:1;stroke-dasharray:none"
       id="path3508"
       inkscape:connector-curvature="0" /><path
       d="m 171.992,418.895 3.5,10 3.5,-10 -7,0 z"
       style="fill:#000000;fill-opacity:1;fill-rule:nonzero;stroke:#000000;stroke-width:1;stroke-linecap:butt;stroke-linejoin:round;stroke-miterlimit:10;stroke-opacity:1;stroke-dasharray:none"
       id="path3510"
       inkscape:connector-curvature="0" /><g
       id="g3743"><path
         inkscape:connector-curvature="0"
         id="path3512"
         style="fill:none;stroke:#000000;stroke-width:1;stroke-linecap:butt;stroke-linejoin:round;stroke-miterlimit:10;stroke-opacity:1;stroke-dasharray:none"
         d="m 164.355,464.59 c -5.597,8.332 -12.5,18.613 -18.75,27.922" /><path
         inkscape:connector-curvature="0"
         id="path3514"
         style="fill:#000000;fill-opacity:1;fill-rule:nonzero;stroke:#000000;stroke-width:1;stroke-linecap:butt;stroke-linejoin:round;stroke-miterlimit:10;stroke-opacity:1;stroke-dasharray:none"
         d="m 142.547,490.789 -2.668,10.254 8.48,-6.352 -5.812,-3.902 z" /></g><path
       d="m 237.176,72.402 c 0,-15.84 -12.844,-28.683 -28.684,-28.683 -15.84,0 -28.683,12.843 -28.683,28.683 0,15.84 12.843,28.684 28.683,28.684 15.84,0 28.684,-12.844 28.684,-28.684"
       style="fill:#984ea3;fill-opacity:1;fill-rule:nonzero;stroke:#000000;stroke-width:1;stroke-linecap:butt;stroke-linejoin:round;stroke-miterlimit:10;stroke-opacity:1;stroke-dasharray:none"
       id="path3516"
       inkscape:connector-curvature="0" /><path
       d="m 241.188,72.402 c 0,-18.058 -14.637,-32.695 -32.696,-32.695 -18.058,0 -32.695,14.637 -32.695,32.695 0,18.059 14.637,32.696 32.695,32.696 18.059,0 32.696,-14.637 32.696,-32.696"
       style="fill:none;stroke:#000000;stroke-width:1;stroke-linecap:butt;stroke-linejoin:round;stroke-miterlimit:10;stroke-opacity:1;stroke-dasharray:none"
       id="path3518"
       inkscape:connector-curvature="0" /><text
       transform="scale(1,-1)"
       id="text3520"
       x="194.49219"
       y="-68.703125"><tspan
         style="font-size:14.00024414px;font-variant:normal;writing-mode:lr-tb;fill:#ffffff;fill-opacity:1;fill-rule:nonzero;stroke:none;font-family:Nimbus Roman No9 L;-inkscape-font-specification:NimbusRomNo9L-Regu"
         x="194.49219 198.98627 208.74445 213.23851"
         y="-68.703125"
         sodipodi:role="line"
         id="tspan3522">INIT</tspan></text>
<path
       d="m 203.379,104.809 c -3.516,20.609 -8.504,48.101 -13.887,72.191 -1.898,8.488 -4.222,17.676 -6.433,25.973"
       style="fill:none;stroke:#000000;stroke-width:1;stroke-linecap:butt;stroke-linejoin:round;stroke-miterlimit:10;stroke-opacity:1;stroke-dasharray:none"
       id="path3524"
       inkscape:connector-curvature="0" /><path
       d="m 179.609,202.328 0.758,10.567 5.996,-8.735 -6.754,-1.832 z"
       style="fill:#000000;fill-opacity:1;fill-rule:nonzero;stroke:#000000;stroke-width:1;stroke-linecap:butt;stroke-linejoin:round;stroke-miterlimit:10;stroke-opacity:1;stroke-dasharray:none"
       id="path3526"
       inkscape:connector-curvature="0" /><path
       d="m 175.492,321.305 c 0,7.711 0,16.984 0,25.582"
       style="fill:none;stroke:#000000;stroke-width:1;stroke-linecap:butt;stroke-linejoin:round;stroke-miterlimit:10;stroke-opacity:1;stroke-dasharray:none"
       id="path3532"
       inkscape:connector-curvature="0" /><path
       d="m 171.992,346.895 3.5,10 3.5,-10 -7,0 z"
       style="fill:#000000;fill-opacity:1;fill-rule:nonzero;stroke:#000000;stroke-width:1;stroke-linecap:butt;stroke-linejoin:round;stroke-miterlimit:10;stroke-opacity:1;stroke-dasharray:none"
       id="path3534"
       inkscape:connector-curvature="0" /><path
       d="m 340.258,750.395 c 13.875,9.058 29.5,22.156 37.234,38.605 21.25,45.191 4.508,72.887 -31,108 -18.59,18.383 -44.488,30.734 -68.054,38.852"
       style="fill:none;stroke:#000000;stroke-width:1;stroke-linecap:butt;stroke-linejoin:round;stroke-miterlimit:10;stroke-opacity:1;stroke-dasharray:none"
       id="path3536"
       inkscape:connector-curvature="0" /><path
       d="m 277.281,932.547 -8.426,6.422 10.59,0.234 -2.164,-6.656 z"
       style="fill:#000000;fill-opacity:1;fill-rule:nonzero;stroke:#000000;stroke-width:1;stroke-linecap:butt;stroke-linejoin:round;stroke-miterlimit:10;stroke-opacity:1;stroke-dasharray:none"
       id="path3538"
       inkscape:connector-curvature="0" /><path
       d="m 305.504,752.945 c -3.754,7.965 -8.316,17.645 -12.516,26.547"
       style="fill:none;stroke:#000000;stroke-width:1;stroke-linecap:butt;stroke-linejoin:round;stroke-miterlimit:10;stroke-opacity:1;stroke-dasharray:none"
       id="path3540"
       inkscape:connector-curvature="0" /><path
       d="m 289.734,778.188 -1.097,10.539 7.429,-7.555 -6.332,-2.984 z"
       style="fill:#000000;fill-opacity:1;fill-rule:nonzero;stroke:#000000;stroke-width:1;stroke-linecap:butt;stroke-linejoin:round;stroke-miterlimit:10;stroke-opacity:1;stroke-dasharray:none"
       id="path3542"
       inkscape:connector-curvature="0" /><path
       d="m 278.27,825.305 c -0.993,7.711 -2.184,16.984 -3.293,25.582"
       style="fill:none;stroke:#000000;stroke-width:1;stroke-linecap:butt;stroke-linejoin:round;stroke-miterlimit:10;stroke-opacity:1;stroke-dasharray:none"
       id="path3544"
       inkscape:connector-curvature="0" /><path
       d="m 271.496,850.531 2.195,10.364 4.747,-9.473 -6.942,-0.891 z"
       style="fill:#000000;fill-opacity:1;fill-rule:nonzero;stroke:#000000;stroke-width:1;stroke-linecap:butt;stroke-linejoin:round;stroke-miterlimit:10;stroke-opacity:1;stroke-dasharray:none"
       id="path3546"
       inkscape:connector-curvature="0" /><path
       d="m 328.785,159 c 0,-9.941 -20.726,-18 -46.293,-18 -25.566,0 -46.293,8.059 -46.293,18 0,9.941 20.727,18 46.293,18 25.567,0 46.293,-8.059 46.293,-18"
       style="fill:#b3cde3;fill-opacity:1;fill-rule:nonzero;stroke:#ff0000;stroke-width:2;stroke-linecap:butt;stroke-linejoin:round;stroke-miterlimit:10;stroke-opacity:1;stroke-dasharray:none"
       id="path3548"
       inkscape:connector-curvature="0" /><text
       transform="scale(1,-1)"
       id="text3550"
       x="254.99219"
       y="-155.30078"><tspan
         style="font-size:14.00024414px;font-variant:normal;writing-mode:lr-tb;fill:#4d4d4d;fill-opacity:1;fill-rule:nonzero;stroke:none;font-family:Nimbus Roman No9 L;-inkscape-font-specification:NimbusRomNo9L-Regu"
         x="254.99219 263.23834 272.24048 276.74857 284.23871 291.74283 299.98898"
         y="-155.30078"
         sodipodi:role="line"
         id="tspan3552">TRIPPED</tspan></text>
<path
       d="m 259.801,174.844 c -16.196,10.597 -38.102,24.926 -55.528,36.328"
       style="fill:none;stroke:#000000;stroke-width:1;stroke-linecap:butt;stroke-linejoin:round;stroke-miterlimit:10;stroke-opacity:1;stroke-dasharray:none"
       id="path3554"
       inkscape:connector-curvature="0" /><path
       d="m 202.078,208.426 -6.453,8.402 10.285,-2.547 -3.832,-5.855 z"
       style="fill:#000000;fill-opacity:1;fill-rule:nonzero;stroke:#000000;stroke-width:1;stroke-linecap:butt;stroke-linejoin:round;stroke-miterlimit:10;stroke-opacity:1;stroke-dasharray:none"
       id="path3556"
       inkscape:connector-curvature="0" /><g
       transform="matrix(-0.04828347,0.99883366,-0.99883366,-0.04828347,706.2467,348.13738)"
       id="g3743-7"><path
         inkscape:connector-curvature="0"
         id="path3512-3"
         style="fill:none;stroke:#000000;stroke-width:1;stroke-linecap:butt;stroke-linejoin:round;stroke-miterlimit:10;stroke-opacity:1;stroke-dasharray:none"
         d="m 177.1129,440.824 c -5.597,8.332 -25.2579,42.379 -31.5079,51.688"
         sodipodi:nodetypes="cc" /><path
         inkscape:connector-curvature="0"
         id="path3514-9"
         style="fill:#000000;fill-opacity:1;fill-rule:nonzero;stroke:#000000;stroke-width:1;stroke-linecap:butt;stroke-linejoin:round;stroke-miterlimit:10;stroke-opacity:1;stroke-dasharray:none"
         d="m 142.547,490.789 -2.668,10.254 8.48,-6.352 -5.812,-3.902 z" /></g><g
       transform="matrix(-0.90951139,-0.41567891,0.41567891,-0.90951139,171.94167,1045.9276)"
       id="g3743-7-3"><path
         inkscape:connector-curvature="0"
         id="path3512-3-9"
         style="fill:none;stroke:#000000;stroke-width:1;stroke-linecap:butt;stroke-linejoin:round;stroke-miterlimit:10;stroke-opacity:1;stroke-dasharray:none"
         d="m 202.99388,425.21764 c -5.597,8.332 -51.13888,57.98536 -57.38888,67.29436"
         sodipodi:nodetypes="cc" /><path
         inkscape:connector-curvature="0"
         id="path3514-9-2"
         style="fill:#000000;fill-opacity:1;fill-rule:nonzero;stroke:#000000;stroke-width:1;stroke-linecap:butt;stroke-linejoin:round;stroke-miterlimit:10;stroke-opacity:1;stroke-dasharray:none"
         d="m 142.547,490.789 -2.668,10.254 8.48,-6.352 -5.812,-3.902 z" /></g></g><g
     inkscape:groupmode="layer"
     id="layer14"
     inkscape:label="state detail"
     style="display:none"
     transform="translate(0.01,-5e-5)"
     sodipodi:insensitive="true"><path
       d="m -200.87302,188.92579 c 0,82.26665 -187.95068,148.95882 -419.80642,148.95882 -231.84968,0 -419.78226,-66.69217 -419.78226,-148.95882 0,-82.26669 187.93258,-148.958865 419.78226,-148.958865 231.85574,0 419.80642,66.692175 419.80642,148.958865"
       style="fill:none;stroke:#000000;stroke-width:2.36483598;stroke-linecap:butt;stroke-linejoin:round;stroke-miterlimit:6;stroke-opacity:1;stroke-dasharray:7.09450827, 7.09450827;stroke-dashoffset:0;display:inline"
       id="path3462-6"
       inkscape:connector-curvature="0" /><path
       transform="matrix(1.25,0,0,-1.25,-40.01,1211.875)"
       sodipodi:nodetypes="cc"
       inkscape:connector-curvature="0"
       id="path7396"
       d="M -340.2197,929.24198 314.36842,822.98429"
       style="fill:none;stroke:#000000;stroke-width:2;stroke-linecap:butt;stroke-linejoin:miter;stroke-miterlimit:6;stroke-opacity:1;stroke-dasharray:6, 6;stroke-dashoffset:0;display:inline" /><path
       transform="matrix(1.25,0,0,-1.25,-40.01,1211.875)"
       sodipodi:nodetypes="cc"
       inkscape:connector-curvature="0"
       id="path7398"
       d="m -365.62917,704.59412 682.7481,86.77895"
       style="fill:none;stroke:#000000;stroke-width:2;stroke-linecap:butt;stroke-linejoin:miter;stroke-miterlimit:6;stroke-opacity:1;stroke-dasharray:6, 6;stroke-dashoffset:0;display:inline" /><g
       style="display:inline"
       id="g8364"
       transform="matrix(1.8042712,0,0,1.8042712,-1312.3284,42.067687)"><rect
         rx="13.43503"
         ry="13.435028"
         y="23.031607"
         x="255.28918"
         height="116.72614"
         width="263.91071"
         id="rect6777-6"
         style="color:#000000;fill:#cbcbcb;fill-opacity:1;stroke:#000000;stroke-width:1;stroke-linecap:butt;stroke-linejoin:miter;stroke-miterlimit:4;stroke-opacity:1;stroke-dasharray:none;stroke-dashoffset:0;marker:none;visibility:visible;display:inline;overflow:visible;enable-background:accumulate" /><rect
         rx="13.435029"
         ry="13.435028"
         y="55.266258"
         x="382.2919"
         height="37.643925"
         width="114.03838"
         id="rect6777"
         style="color:#000000;fill:none;stroke:#000000;stroke-width:1;stroke-linecap:butt;stroke-linejoin:miter;stroke-miterlimit:4;stroke-opacity:1;stroke-dasharray:4.00000001, 4.00000001;stroke-dashoffset:0;marker:none;visibility:visible;display:inline;overflow:visible;enable-background:accumulate" /><g
         id="g9413"
         transform="matrix(0.78647158,0,0,0.78458869,185.2606,-145.10776)"><rect
           style="color:#000000;fill:#77e8fb;fill-opacity:1;stroke:#000000;stroke-width:1.27302659;stroke-opacity:1;marker:none;visibility:visible;display:inline;overflow:visible;enable-background:accumulate"
           id="rect9419"
           width="82.074898"
           height="27.779196"
           x="143.00705"
           y="289.44446"
           ry="7.7383914"
           rx="8.1928558" /><text
           sodipodi:linespacing="100%"
           id="text9415"
           y="308.39404"
           x="183.63747"
           style="font-size:20px;font-style:normal;font-variant:normal;font-weight:normal;font-stretch:normal;text-align:center;line-height:100%;letter-spacing:0px;word-spacing:0px;writing-mode:lr-tb;text-anchor:middle;color:#000000;fill:#000000;fill-opacity:1;fill-rule:nonzero;stroke:none;stroke-width:1px;marker:none;visibility:visible;display:inline;overflow:visible;enable-background:accumulate;font-family:FreeSans;-inkscape-font-specification:FreeSans"
           xml:space="preserve"><tspan
             y="308.39404"
             x="183.63747"
             id="tspan9417"
             sodipodi:role="line">main</tspan></text>
</g><g
         transform="matrix(0.78647158,0,0,0.78458869,302.5653,-145.10776)"
         id="g9384"><rect
           rx="7.7387462"
           ry="6.8469276"
           y="289.44446"
           x="132.83505"
           height="27.779196"
           width="82.074898"
           id="rect9390"
           style="color:#000000;fill:#9feb97;fill-opacity:1;stroke:#000000;stroke-width:1.27302659;stroke-opacity:1;marker:none;visibility:visible;display:inline;overflow:visible;enable-background:accumulate" /><text
           xml:space="preserve"
           style="font-size:20px;font-style:normal;font-variant:normal;font-weight:normal;font-stretch:normal;text-align:center;line-height:100%;letter-spacing:0px;word-spacing:0px;writing-mode:lr-tb;text-anchor:middle;color:#000000;fill:#000000;fill-opacity:1;fill-rule:nonzero;stroke:none;stroke-width:1px;marker:none;visibility:visible;display:inline;overflow:visible;enable-background:accumulate;font-family:FreeSans;-inkscape-font-specification:FreeSans"
           x="173.8736"
           y="308.49405"
           id="text9386"
           sodipodi:linespacing="100%"><tspan
             sodipodi:role="line"
             id="tspan9388"
             x="173.8736"
             y="308.49405">run</tspan></text>
</g><path
         transform="matrix(0.83890304,0,0,0.73843642,53.86338,65.045762)"
         d="m 513,37.69986 c 0,2.34721 -1.67893,4.25 -3.75,4.25 -2.07107,0 -3.75,-1.90279 -3.75,-4.25 0,-2.347211 1.67893,-4.25 3.75,-4.25 2.07107,0 3.75,1.902789 3.75,4.25 z"
         sodipodi:ry="4.25"
         sodipodi:rx="3.75"
         sodipodi:cy="37.69986"
         sodipodi:cx="509.25"
         id="path7431"
         style="color:#000000;fill:#000000;fill-opacity:1;stroke:none;stroke-width:1;marker:none;visibility:visible;display:inline;overflow:visible;enable-background:accumulate"
         sodipodi:type="arc" /><path
         inkscape:connector-curvature="0"
         id="path8098-1"
         d="m 361.84951,92.902325 43.87283,0"
         style="fill:none;stroke:#000000;stroke-width:0.99999988px;stroke-linecap:butt;stroke-linejoin:miter;stroke-opacity:1;marker-end:url(#Arrow2Lend-49);display:inline"
         sodipodi:nodetypes="cc" /><path
         inkscape:connector-curvature="0"
         id="path8098-1-2"
         d="m 472.13736,92.902326 42.19262,0"
         style="fill:none;stroke:#000000;stroke-width:0.99999994px;stroke-linecap:butt;stroke-linejoin:miter;stroke-opacity:1;marker-end:url(#Arrow2Lend-49);display:inline" /><text
         xml:space="preserve"
         style="font-size:20px;font-style:normal;font-variant:normal;font-weight:600;font-stretch:normal;text-align:center;line-height:100%;letter-spacing:0px;word-spacing:0px;writing-mode:lr-tb;text-anchor:middle;color:#000000;fill:#000000;fill-opacity:1;fill-rule:nonzero;stroke:none;stroke-width:1px;marker:none;visibility:visible;display:inline;overflow:visible;enable-background:accumulate;font-family:FreeSans;-inkscape-font-specification:FreeSans Semi-Bold"
         x="306.33859"
         y="52.469181"
         id="text8662"
         sodipodi:linespacing="100%"><tspan
           sodipodi:role="line"
           id="tspan8664"
           x="306.33859"
           y="52.469181">STATE</tspan></text>
<path
         sodipodi:type="arc"
         style="color:#000000;fill:#000000;fill-opacity:1;stroke:none;stroke-width:1;marker:none;visibility:visible;display:inline;overflow:visible;enable-background:accumulate"
         id="path9403"
         sodipodi:cx="509.25"
         sodipodi:cy="37.69986"
         sodipodi:rx="3.75"
         sodipodi:ry="4.25"
         d="m 513,37.69986 c 0,2.34721 -1.67893,4.25 -3.75,4.25 -2.07107,0 -3.75,-1.90279 -3.75,-4.25 0,-2.347211 1.67893,-4.25 3.75,-4.25 2.07107,0 3.75,1.902789 3.75,4.25 z"
         transform="matrix(1.0666667,0,0,0.94117647,-24.275694,57.40249)" /><path
         transform="matrix(1.0666667,0,0,0.94117647,-287.84556,57.40249)"
         d="m 513,37.69986 c 0,2.34721 -1.67893,4.25 -3.75,4.25 -2.07107,0 -3.75,-1.90279 -3.75,-4.25 0,-2.347211 1.67893,-4.25 3.75,-4.25 2.07107,0 3.75,1.902789 3.75,4.25 z"
         sodipodi:ry="4.25"
         sodipodi:rx="3.75"
         sodipodi:cy="37.69986"
         sodipodi:cx="509.25"
         id="path9405"
         style="color:#000000;fill:#000000;fill-opacity:1;stroke:none;stroke-width:1;marker:none;visibility:visible;display:inline;overflow:visible;enable-background:accumulate"
         sodipodi:type="arc" /><path
         inkscape:connector-curvature="0"
         id="path8098-91-0"
         d="m 258.11985,92.902326 38.1579,0"
         style="fill:none;stroke:#000000;stroke-width:1px;stroke-linecap:butt;stroke-linejoin:miter;stroke-opacity:1;marker-end:url(#Arrow2Lend-49);display:inline"
         sodipodi:nodetypes="cc" /><path
         sodipodi:type="arc"
         style="color:#000000;fill:#000000;fill-opacity:1;stroke:none;stroke-width:1;marker:none;visibility:visible;display:inline;overflow:visible;enable-background:accumulate"
         id="path5452"
         sodipodi:cx="509.25"
         sodipodi:cy="37.69986"
         sodipodi:rx="3.75"
         sodipodi:ry="4.25"
         d="m 513,37.69986 c 0,2.34721 -1.67893,4.25 -3.75,4.25 -2.07107,0 -3.75,-1.90279 -3.75,-4.25 0,-2.347211 1.67893,-4.25 3.75,-4.25 2.07107,0 3.75,1.902789 3.75,4.25 z"
         transform="matrix(0.83890304,0,0,0.73843642,-55.918475,65.045762)" /></g></g></svg>